{
    "page": 1,
    "total_results": 10000,
    "total_pages": 500,
    "results": [
        {
            "popularity": 211.123,
            "vote_count": 2692,
            "video": false,
            "poster_path": "/oD1aXPXCdOD3etYXp7aLPOpYjZQ.jpg",
            "id": 583083,
            "adult": false,
            "backdrop_path": "/wO5QSWZPBT71gMLvrRex0bVc0V9.jpg",
            "original_language": "en",
            "original_title": "The Kissing Booth 2",
            "genre_ids": [
                35,
                10749
            ],
            "title": "Будка поцілунків 2",
            "vote_average": 8.2,
            "overview": "Тепер Ель доведеться вирішувати, що для неї важливіше — стосунки з коханою або навчання в коледжі.",
            "release_date": "2020-07-24"
        },
        {
            "popularity": 167.259,
            "id": 561,
            "video": false,
            "vote_count": 4254,
            "vote_average": 6.9,
            "title": "Константин",
            "release_date": "2005-02-08",
            "original_language": "en",
            "original_title": "Constantine",
            "genre_ids": [
                18,
                14,
                27
            ],
            "backdrop_path": "/tIG8FwHRiHLOlWJdizp2oxdkSL2.jpg",
            "adult": false,
            "overview": "Джон Константин від народження має неймовірний дар — бачити янголів і демонів, що існують під виглядом людей. Ці здібності він не подобав настільки, що намагався здійснити самогубство, аби позбавитись огидних видінь. Проте невдало. Константину тимчасово дарують право на життя, аби він, патрулюючи кордон між раєм і пеклом, спокутував провину шляхом боротьби з демонами.  Але Джон — не святий, і не може таким стати, бо на ньому печатка самогубці. Врятований проти власної волі, він усе більше розчаровуюється в оточуючому світі, починає курити та пити, з презирством ставлячись до свого життя. Константин буде до останнього боротися за вашу душу, але йому не потрібні ані ваше захоплення, ані подяка. Найменше він очікує на співчуття! Усе, що йому потрібно,— знайти вихід, врятувати душу від пекла.",
            "poster_path": "/1y1n7ZVlNyol4U26yZZAnhcqqfb.jpg"
        },
        {
            "popularity": 162.329,
            "vote_count": 756,
            "video": false,
            "poster_path": "/hGd968C2DfdxUV1TXgDrSVMUdH2.jpg",
            "id": 516486,
            "adult": false,
            "backdrop_path": "/xXBnM6uSTk6qqCf0SRZKXcga9Ba.jpg",
            "original_language": "en",
            "original_title": "Greyhound",
            "genre_ids": [
                28,
                18,
                10752
            ],
            "title": "Ґрейгаунд: Битва за Атлантику",
            "vote_average": 7.5,
            "overview": "У розпал Другої світової війни офіцера морського флоту призначають капітаном есмінця «Ґрейгаунд». Перше завдання нового командира — провести 37 кораблів Північною Атлантикою, яка нашпигована підводними човнами ворога. Щоб успішно завершити місію, зберегти судна і екіпаж цілими, капітан перш за все повинен виграти найбільшу битву — з власними страхами.",
            "release_date": "2020-06-19"
        },
        {
            "popularity": 138.001,
            "id": 696374,
            "video": false,
            "vote_count": 1006,
            "vote_average": 9.1,
            "title": "Інферно Габрієля",
            "release_date": "2020-05-29",
            "original_language": "en",
            "original_title": "Gabriel's Inferno",
            "genre_ids": [
                10749
            ],
            "backdrop_path": "/969BfPHGJcjg2aUv60g5uiiXFzf.jpg",
            "adult": false,
            "overview": "Історія втечі одної людини з власного пекла в спробі отримати неможливе - прощення і кохання.",
            "poster_path": "/oyG9TL7FcRP4EZ9Vid6uKzwdndz.jpg"
        },
        {
            "popularity": 124.707,
            "id": 475557,
            "video": false,
            "vote_count": 14105,
            "vote_average": 8.2,
            "title": "Джокер",
            "release_date": "2019-10-02",
            "original_language": "en",
            "original_title": "Joker",
            "genre_ids": [
                80,
                53,
                18
            ],
            "backdrop_path": "/n6bUvigpRFqSwmPp1m2YADdbRBc.jpg",
            "adult": false,
            "overview": "Фільм розкаже історію про культового антигероя. Це буде одночасно і справжнім дослідженням Артура Флека (Джокера), чоловіка, якого відторгає суспільство, і повчальною історією.",
            "poster_path": "/2WtmGXoskpqN41yrJ9QNA3eucSp.jpg"
        },
        {
            "popularity": 116.585,
            "vote_count": 305,
            "video": false,
            "poster_path": "/Vej5D2CGof3IQriLmp0B2B1AiX.jpg",
            "id": 385103,
            "adult": false,
            "backdrop_path": "/fKtYXUhX5fxMxzQfyUcQW9Shik6.jpg",
            "original_language": "en",
            "original_title": "Scoob!",
            "genre_ids": [
                12,
                16,
                35,
                9648,
                10751
            ],
            "title": "Скубі-Ду!",
            "vote_average": 7.7,
            "overview": "Фільм розповідає про першу зустріч Скубі та Шеґґі, яким судилось стати нерозлучними друзями. А також про те, як вони познайомились з юними детективами Фредом, Вельмою і Дафною та разом заснували відому компанію Mystery Inc.",
            "release_date": "2020-07-08"
        },
        {
            "popularity": 109.781,
            "vote_count": 1509,
            "video": false,
            "poster_path": "/klRslyXhTS2JPvZ38SNVPwdXe3p.jpg",
            "id": 547016,
            "adult": false,
            "backdrop_path": "/m0ObOaJBerZ3Unc74l471ar8Iiy.jpg",
            "original_language": "en",
            "original_title": "The Old Guard",
            "genre_ids": [
                28,
                14
            ],
            "title": "Стара гвардія",
            "vote_average": 7.4,
            "overview": "У центрі сюжету — група безсмертних воїнів. Герої протягом століть працювали найманцями, але за весь цей час так і не змогли зрозуміти, чому вони не можуть померти. А в якийсь момент одна впливова компанія відкриває полювання на членів цієї групи, щоб розкрити таємницю їх безсмертя.",
            "release_date": "2020-07-10"
        },
        {
            "popularity": 109.042,
            "vote_count": 5139,
            "video": false,
            "poster_path": "/b0jjiy1LgYwit2kHus8JePOx5Gd.jpg",
            "id": 454983,
            "adult": false,
            "backdrop_path": "/itiz2OBK4ns6XT0ufXtusojmMt9.jpg",
            "original_language": "en",
            "original_title": "The Kissing Booth",
            "genre_ids": [
                35,
                10749
            ],
            "title": "Будка поцілунків",
            "vote_average": 7.3,
            "overview": "Старшокласниця Ель — товариська, мила, але ще не випробувала принади поцілунків. Ной — старший брат її кращого друга. Зухвалий і вітряний, що розбив не одне дівоче серце. Вирішивши одного разу взяти участь в «Будці поцілунків» на осінньому карнавалі, Ель навіть уявити не могла, що подарує свій перший поцілунок Ною, і її життя змінитися до невпізнання.",
            "release_date": "2018-05-11"
        },
        {
            "popularity": 106.418,
            "id": 338952,
            "video": false,
            "vote_count": 7049,
            "vote_average": 6.9,
            "title": "Фантастичні звірі: Злочини Ґріндельвальда",
            "release_date": "2018-11-14",
            "original_language": "en",
            "original_title": "Fantastic Beasts: The Crimes of Grindelwald",
            "genre_ids": [
                12,
                14,
                10751
            ],
            "backdrop_path": "/qrtRKRzoNkf5vemO9tJ2Y4DrHxQ.jpg",
            "adult": false,
            "overview": "Ґріндельвальд тікає з-під варти і збирає тих, хто вважає чарівників вищими за всіх не магічних істот. Єдиний, хто може зупинити його, це Албус Дамблдор. Раніше вони були друзями, але тепер опинились по різні боки барикад. Але Дамблдору не впоратися самотужки, тож він вирішує заручитися підтримкою свого колишнього учня Ньюта Скамандера. Захоплююча пригода знову об'єднає Ньюта з Тіною, Квіні з Якобом та випробує їхню вірність одне одному.",
            "poster_path": "/3bIOfqhlzey575PbM60F506rYZp.jpg"
        },
        {
            "popularity": 105.531,
            "vote_count": 33,
            "video": false,
            "poster_path": "/2u1cyQgBpWWypISdbUDCu2hasGV.jpg",
            "id": 719643,
            "adult": false,
            "backdrop_path": "/4LESGiXXBZjJUrQw4VEmb95eXOq.jpg",
            "original_language": "en",
            "original_title": "Black Is King",
            "genre_ids": [
                10402
            ],
            "title": "Чорний король",
            "vote_average": 7.8,
            "overview": "Візуальний альбом американської співачки Бейонсе натхненний  анімаційним фільмом «Король Лев».",
            "release_date": "2020-07-31"
        },
        {
            "popularity": 103.43,
            "vote_count": 19163,
            "video": false,
            "poster_path": "/uUAD59mJPtbqRZa3eFRPsqFdYhM.jpg",
            "id": 299536,
            "adult": false,
            "backdrop_path": "/bOGkgRGdhrBYJSLpXaxhXVstddV.jpg",
            "original_language": "en",
            "original_title": "Avengers: Infinity War",
            "genre_ids": [
                28,
                12,
                878
            ],
            "title": "Месники: Війна нескінченності",
            "vote_average": 8.3,
            "overview": "Всесвіт MARVEL ще не бачив битви такого розмаху. Усі супергерої об’єднаються, щоб протистояти наймогутнішому ворогу. Люди тут безсилі, залишається тільки спостерігати.",
            "release_date": "2018-04-25"
        },
        {
            "popularity": 91.41,
            "id": 157336,
            "video": false,
            "vote_count": 23237,
            "vote_average": 8.3,
            "title": "Інтерстеллар",
            "release_date": "2014-11-05",
            "original_language": "en",
            "original_title": "Interstellar",
            "genre_ids": [
                12,
                18,
                878
            ],
            "backdrop_path": "/xJHokMbljvjADYdit5fK5VQsXEG.jpg",
            "adult": false,
            "overview": "Наш час на Землі дійшов кінця, команда дослідників бере на себе найважливішу місію в історії людства — вирушити у подорож за межі нашої галактики, щоб дізнатися, чи є у людства майбутнє серед зірок.",
            "poster_path": "/9d1sCoMSGJZtghS2X9us1h9u8lW.jpg"
        },
        {
            "popularity": 91.387,
            "id": 661747,
            "video": false,
            "vote_count": 12,
            "vote_average": 6,
            "title": "Жарти в сторону",
            "release_date": "2020-07-31",
            "original_language": "en",
            "original_title": "Seriously Single",
            "genre_ids": [
                35
            ],
            "backdrop_path": "/zNVKhT0js1UF7ZT9Lb4ioaa8jk6.jpg",
            "adult": false,
            "overview": "В той час коли її волелюбна красуня переконує, прийняти єдність, прагнучий зобов'язань експерт по соціальних медіа не може перестати стежити за життям колишнього кохання.",
            "poster_path": "/qptLj4WxATqp3MZq97JmhYjtc9B.jpg"
        },
        {
            "popularity": 90.332,
            "vote_count": 77,
            "video": false,
            "poster_path": "/yWlN2L8a8ImW1wAqko0IMfyIpd.jpg",
            "id": 590854,
            "adult": false,
            "backdrop_path": "/l6jMKYxCfbdPnniu4SQkVAYkS8q.jpg",
            "original_language": "pl",
            "original_title": "Sala samobójców. Hejter",
            "genre_ids": [
                18,
                53
            ],
            "title": "Гейтер",
            "vote_average": 7,
            "overview": "Юнак влаштовується на роботу в рекламне агентство, де знаходить інструменти для запуску онлайн-атак на людей, і поченає мститися всім кому прагнув.",
            "release_date": "2020-03-06"
        },
        {
            "popularity": 89.645,
            "vote_count": 26665,
            "video": false,
            "poster_path": "/r84x4x93LbZ2gozISTBYVeq0gLZ.jpg",
            "id": 27205,
            "adult": false,
            "backdrop_path": "/s3TBrRGB1iav7gFOCNx3H31MoES.jpg",
            "original_language": "en",
            "original_title": "Inception",
            "genre_ids": [
                28,
                12,
                878
            ],
            "title": "Початок",
            "vote_average": 8.3,
            "overview": "Виконавчий директор невеликої фірми заправляє організацією, співробітники якої вміють занурюватися в сни людей, щоб імплантувати в них нову інформацію або, навпаки, видаляти зайву. Тиху наукову роботу порушує замовлення, від якого не можна відмовитися, — імплантувати в мозок успішного бізнесмена «правильні» ідеї, які сподобаються його конкурентам.",
            "release_date": "2010-07-15"
        },
        {
            "popularity": 89.608,
            "vote_count": 8632,
            "video": false,
            "poster_path": "/dOPA0ihoqceHTYN4qmO3JwoA8l9.jpg",
            "id": 496243,
            "adult": false,
            "backdrop_path": "/ApiBzeaa95TNYliSbQ8pJv4Fje7.jpg",
            "original_language": "ko",
            "original_title": "기생충",
            "genre_ids": [
                35,
                18,
                53
            ],
            "title": "Паразити",
            "vote_average": 8.5,
            "overview": "У сім’ї чотирьох безробітних похмурі життєві перспективи. Ситуація змінюється, коли старшому синові пропонують високооплачуваний підробіток репетитором. З допомогою сестри він робить фальшиві документи про освіту та приходить до розкішного маєтку заможного бізнесмена. Справивши гарне враження, старший син дізнається про ще одну відкриту вакансію, і у нього з’являється дуже незвичайний план з працевлаштування сестри.",
            "release_date": "2019-05-30"
        },
        {
            "popularity": 88.831,
            "vote_count": 5358,
            "video": false,
            "poster_path": "/kAlaF2EpICoMv3ds0lNWysb3RLc.jpg",
            "id": 181812,
            "adult": false,
            "backdrop_path": "/SPkEiZGxq5aHWQ2Zw7AITwSEo2.jpg",
            "original_language": "en",
            "original_title": "Star Wars: The Rise of Skywalker",
            "genre_ids": [
                28,
                12,
                878
            ],
            "title": "Зоряні Війни: Скайвокер. Сходження",
            "vote_average": 6.6,
            "overview": "Дев’ятий епізод епосу «Зоряні Війни» завершує неймовірну історію сім’ї Скайвокерів, яка триває вже більше ніж 40 років, обіцяє дати відповіді на всі загадки з попередніх серій.",
            "release_date": "2019-12-18"
        },
        {
            "popularity": 87.568,
            "id": 672,
            "video": false,
            "vote_count": 14695,
            "vote_average": 7.7,
            "title": "Гаррі Поттер і таємна кімната",
            "release_date": "2002-11-13",
            "original_language": "en",
            "original_title": "Harry Potter and the Chamber of Secrets",
            "genre_ids": [
                12,
                14
            ],
            "backdrop_path": "/bvRnPaai6JL7XHF4K6414DdSHro.jpg",
            "adult": false,
            "overview": "Гаррі Поттер переходить на другий курс Школи Магії і Чарів Гоґвортс. Ельф Доббі попереджає Гаррі про небезпеку, яка чекає його там, і просить більше не повертатися в Гоґвортс. Гаррі не слідує пораді ельфа і стає свідком страшних подій, що розгортаються в школі. Один за іншим, мешканці школи виявляються під впливом злих чарів, що перетворюють їх у закляклі статуї. А Гаррі весь цей час чує зловісний голос, який, здавалося б, йде з нізвідки. Незабаром учні довідаються про існування страшної Таємної кімнати, відкрити яку в змозі тільки єдиний спадкоємець Салазара Слизерина. Усі думають, що Таємну кімнату відкрив саме Гаррі і звільнив ув’язнений у ній Жах, адже справа в тому, що Поттер розуміє змій і вміє говорити на їхній мові. Гаррі Поттер – перселмовець! А саме таким і був знаменитий Слизерин.",
            "poster_path": "/csOv5H7R2zdnKaYuTrGVWohmo8d.jpg"
        },
        {
            "popularity": 85.897,
            "vote_count": 234,
            "video": false,
            "poster_path": "/5M1LyARNN5UN9Nfx0ho355zE7sM.jpg",
            "id": 531876,
            "adult": false,
            "backdrop_path": "/n1RohH2VoK1CdVI2fXvcP19dSlm.jpg",
            "original_language": "en",
            "original_title": "The Outpost",
            "genre_ids": [
                28,
                18,
                36,
                10752
            ],
            "title": "Форпост",
            "vote_average": 6.6,
            "overview": "Невелика група солдатів США бореться в Афганістані проти кількох сотень талібів.",
            "release_date": "2020-06-24"
        },
        {
            "popularity": 82.945,
            "id": 495764,
            "video": false,
            "vote_count": 5301,
            "vote_average": 7.2,
            "title": "Хижі Пташки (та фантастична Харлі Квін)",
            "release_date": "2020-02-05",
            "original_language": "en",
            "original_title": "Birds of Prey (and the Fantabulous Emancipation of One Harley Quinn)",
            "genre_ids": [
                28,
                80,
                35,
                18
            ],
            "backdrop_path": "/9xNOiv6DZZjH7ABoUUDP0ZynouU.jpg",
            "adult": false,
            "overview": "Заплутана історія, яку Гарлі розповідає так, як лише вона могла б розказати. Коли найпідступніший самозакоханий поганець Ґотема Роман Сайоніс та його права рука Зас націлюються на молоду дівчину на ім’я Касс, місто перевертається догори дриґом, аби знайти її. Шляхи Гарлі, Мисливиці, Чорної Канарки та Рене Монтойї перетинаються, і цій четвірці не залишається нічого іншого, як об’єднатися для знищення Романа.",
            "poster_path": "/96CbQkAW1bkcvK4YXTzEaGBE6Ow.jpg"
        }
    ]
}